{
    "key": "group_5e77504d35219",
    "title": "[OPTION] Social Icons",
    "fields": [
        {
            "key": "field_5e775056f9a08",
            "label": "Social Icons",
            "name": "social_icons",
            "type": "repeater",
            "instructions": "",
            "required": 0,
            "conditional_logic": 0,
            "wrapper": {
                "width": "",
                "class": "",
                "id": ""
            },
            "collapsed": "field_5e775174bd812",
            "min": 0,
            "max": 0,
            "layout": "block",
            "button_label": "Add Social Medium",
            "sub_fields": [
                {
                    "key": "field_5e775174bd812",
                    "label": "Social Medium",
                    "name": "social_medium",
                    "type": "select",
                    "instructions": "",
                    "required": 0,
                    "conditional_logic": 0,
                    "wrapper": {
                        "width": "50",
                        "class": "",
                        "id": ""
                    },
                    "choices": {
                        "fa-facebook-f": "Facebook",
                        "fa-twitter": "Twitter",
                        "fa-google-plus-g": "Google+",
                        "fa-linkedin-in": "Linkedin",
                        "fa-instagram": "Instagram",
                        "fa-pinterest": "Pinterest",
                        "fa-vk": "Vkontakte",
                        "fa-stack-overflow": "Stack Overflow",
                        "fa-youtube": "Youtube",
                        "fa-slack-hash": "Slack",
                        "fa-github": "Github",
                        "fa-comments": "Comments",
                        "fa-envelope": "Email",
                        "fa-dribbble": "Dribbble",
                        "fa-reddit-alien": "Reddit",
                        "fa-whatsapp": "WhatsApp",
                        "fa-skype": "Skype"
                    },
                    "default_value": [],
                    "allow_null": 0,
                    "multiple": 0,
                    "ui": 1,
                    "ajax": 0,
                    "return_format": "array",
                    "placeholder": ""
                },
                {
                    "key": "field_5e775197bd813",
                    "label": "Link",
                    "name": "link",
                    "type": "url",
                    "instructions": "",
                    "required": 0,
                    "conditional_logic": [
                        [
                            {
                                "field": "field_5e775174bd812",
                                "operator": "!=",
                                "value": "fa-skype"
                            }
                        ]
                    ],
                    "wrapper": {
                        "width": "50",
                        "class": "",
                        "id": ""
                    },
                    "default_value": "",
                    "placeholder": ""
                },
                {
                    "key": "field_5e8dec53725f6",
                    "label": "Text",
                    "name": "link",
                    "type": "text",
                    "instructions": "",
                    "required": 0,
                    "conditional_logic": [
                        [
                            {
                                "field": "field_5e775174bd812",
                                "operator": "==",
                                "value": "fa-skype"
                            }
                        ]
                    ],
                    "wrapper": {
                        "width": "50",
                        "class": "",
                        "id": ""
                    },
                    "default_value": "",
                    "placeholder": "",
                    "prepend": "",
                    "append": "",
                    "maxlength": ""
                }
            ]
        }
    ],
    "location": [
        [
            {
                "param": "options_page",
                "operator": "==",
                "value": "cloud1500-site-settings"
            }
        ]
    ],
    "menu_order": 0,
    "position": "normal",
    "style": "default",
    "label_placement": "top",
    "instruction_placement": "label",
    "hide_on_screen": "",
    "active": 0,
    "description": "",
    "modified": 1587798276
}